age,income,student,credit_rating,buys_computer
12,high,no,fair,no
15,high,no,excellent,no
20,high,no,fair,yes
31,medium,no,fair,yes
33,low,yes,fair,yes
37,low,yes,excellent,no
24,low,yes,excellent,yes
18,medium,no,fair,no
17,low,yes,fair,yes
15,medium,yes,fair,yes
20,medium,yes,excellent,yes
25,medium,no,excellent,yes
28,high,yes,fair,yes
40,medium,no,excellent,no
